-100.38838,20.610063
-100.386802,20.610147
-100.386442,20.609114
-100.38332,20.608429
-100.382298,20.605955
-100.389989,20.613922
-100.394222,20.613268
-100.397181,20.612857
-100.399836,20.613055
-100.401945,20.612573
-100.39687,20.6092101
-100.405749,20.610382
-100.406867,20.606573
-100.408668,20.605739
-100.406611,20.603862
-100.409706,20.61207
-100.383215,20.601403
-100.384053,20.601178
-100.380798,20.600813
-100.407375,20.596437
-100.407122,20.595779
-100.403316,20.596183
-100.399739,20.596995
-100.398492,20.597667
-100.398421,20.592702
-100.397006,20.593169
-100.401697,20.591693
-100.404874,20.590529
-100.4063,20.589964
-100.405837,20.588632
-100.40859,20.589364
-100.410065,20.589232
-100.41146,20.589439
-100.40807,20.587852
-100.409321,20.587412
-100.410515,20.58699
-100.409745,20.585233
-100.405086,20.5865
-100.403276,20.58711
-100.404362,20.58418
-100.402166,20.584754
-100.399559,20.585669
-100.396554,20.586675
-100.395114,20.587163
-100.393923,20.58412
-100.395651,20.583284
-100.391535,20.584951
-100.398079,20.581724
-100.388782,20.58596
-100.385845,20.587028
-100.386949,20.589948
-100.378986,20.591885
-100.378101,20.592499
-100.376605,20.590774
-100.376417,20.588207
-100.375135,20.58707
-100.414987,20.620784
-100.410396,20.619338