-100.394623,20.598472
-100.393679,20.598432
-100.396897,20.598272
-100.39855,20.597789
-100.394473,20.598051
-100.396039,20.597759
-100.396887,20.59787
-100.398442,20.597428
-100.399805,20.597167
-100.399633,20.596715
-100.401618,20.595962
-100.403174,20.595932
-100.407122,20.595771
-100.413763,20.595229
-100.4149,20.595249
-100.392262,20.594596
-100.393024,20.594375
-100.39458,20.593913
-100.395728,20.593581
-100.396983,20.59321
-100.39841,20.592698
-100.400352,20.592065
-100.401704,20.591653
-100.391013,20.591467
-100.391613,20.591166
-100.39318,20.590684
-100.404826,20.590538
-100.394596,20.590282
-100.406317,20.589966
-100.395948,20.58982
-100.413237,20.589705
-100.408324,20.589353
-100.411424,20.589373
-100.397278,20.589338
-100.409032,20.589223
-100.41004,20.589283
-100.404273,20.589177
-100.389859,20.588911
-100.399102,20.588695
-100.390396,20.58871
-100.405797,20.588615
-100.400475,20.588233
-100.392112,20.588168
-100.408071,20.587832
-100.393979,20.587606
-100.409337,20.58743
-100.395052,20.587184
-100.403265,20.587129
-100.410475,20.587028
-100.396447,20.586682
-100.405089,20.586466
-100.411934,20.586506
-100.398136,20.586074
-100.388851,20.585938
-100.407256,20.585823
-100.399553,20.585682
-100.408543,20.585562
-100.409788,20.585301
-100.391018,20.585215
-100.402128,20.584798
-100.410475,20.584919
-100.392906,20.584532
-100.404273,20.584196
-100.393872,20.584151
-100.39561,20.583247
-100.398056,20.58182
-100.407084,20.581765
-100.399107,20.580916
-100.40224,20.57722