-100.421725,20.619097
-100.388987,20.614291
-100.389989,20.613922
-100.394222,20.613268
-100.399836,20.613055
-100.397181,20.612857
-100.401945,20.612573
-100.413654,20.611969
-100.409706,20.61207
-100.386802,20.610147
-100.405749,20.610382
-100.386442,20.609114
-100.38332,20.608429
-100.382298,20.605955
-100.408668,20.605739
-100.377236,20.604497
-100.380798,20.600813
-100.37591,20.600506
-100.398492,20.597667
-100.399739,20.596995
-100.403316,20.596183
-100.407122,20.595779
-100.392271,20.594612
-100.397006,20.593169
-100.398421,20.592702
-100.378101,20.592499
-100.378986,20.591885
-100.376605,20.590774
-100.386949,20.589948
-100.397337,20.589346
-100.40859,20.589364
-100.410065,20.589232
-100.404232,20.589193
-100.389918,20.588889
-100.405837,20.588632
-100.40052,20.588274
-100.40807,20.587852
-100.370604,20.587858
-100.409321,20.587412
-100.403276,20.58711
-100.395114,20.587163
-100.375135,20.58707
-100.410515,20.58699
-100.396554,20.586675
-100.388782,20.58596
-100.40857,20.585536
-100.399559,20.585669
-100.391535,20.584951
-100.402166,20.584754
-100.398079,20.581724
-100.399094,20.580837