-100.394473,20.598051
-100.398442,20.597428
-100.396887,20.59787
-100.396039,20.597759
-100.399633,20.596715
-100.393024,20.594375
-100.39458,20.593913
-100.400352,20.592065
-100.39841,20.592698
-100.396983,20.59321
-100.395728,20.593581
-100.395948,20.58982
-100.395052,20.587184
-100.393979,20.587606
-100.396447,20.586682
-100.399553,20.585682
-100.398136,20.586074
-100.402128,20.584798
-100.392112,20.588168
-100.390396,20.58871
-100.405089,20.586466
-100.403265,20.587129
-100.404826,20.590538
-100.404273,20.589177
-100.408071,20.587832
-100.405797,20.588615
-100.410475,20.587028
-100.409337,20.58743