UndirectedEdge[5, 6]
UndirectedEdge[5, 17]
UndirectedEdge[6, 7]
UndirectedEdge[7, 8]
UndirectedEdge[8, 10]
UndirectedEdge[17, 18]
UndirectedEdge[18, 19]
UndirectedEdge[19, 20]
UndirectedEdge[20, 21]
UndirectedEdge[20, 30]
UndirectedEdge[21, 22]
UndirectedEdge[30, 47]
UndirectedEdge[27, 37]
UndirectedEdge[37, 41]
UndirectedEdge[41, 44]
UndirectedEdge[40, 43]
UndirectedEdge[44, 46]
UndirectedEdge[43, 45]
UndirectedEdge[46, 49]
UndirectedEdge[45, 47]
UndirectedEdge[47, 50]
UndirectedEdge[37, 48]
UndirectedEdge[48, 51]
UndirectedEdge[50, 53]
UndirectedEdge[53, 56]
UndirectedEdge[56, 60]
UndirectedEdge[48, 60]