UndirectedEdge[1, 2]
UndirectedEdge[1, 8]
UndirectedEdge[1, 9]
UndirectedEdge[2, 3]
UndirectedEdge[2, 5]
UndirectedEdge[3, 4]
UndirectedEdge[3, 5]
UndirectedEdge[3, 6]
UndirectedEdge[4, 7]
UndirectedEdge[4, 10]
UndirectedEdge[5, 6]
UndirectedEdge[5, 9]
UndirectedEdge[6, 7]
UndirectedEdge[7, 9]
UndirectedEdge[8, 11]
UndirectedEdge[9, 10]
UndirectedEdge[9, 11]
UndirectedEdge[10, 11]