-100.414987,20.620784
-100.410396,20.619338
-100.404087,20.61737
-100.394259,20.616607
-100.390182,20.616285
-100.389989,20.613922
-100.394222,20.613268
-100.399836,20.613055
-100.397181,20.612857
-100.401945,20.612573
-100.38838,20.610063
-100.386802,20.610147
-100.405749,20.610382
-100.399391,20.609277
-100.39687,20.6092101
-100.386442,20.609114
-100.38332,20.608429
-100.406867,20.606573
-100.382298,20.605955
-100.408668,20.605739
-100.399448,20.603633
-100.383215,20.601403
-100.384053,20.601178
-100.380798,20.600813
-100.37591,20.600506
-100.398492,20.597667
-100.399739,20.596995
-100.372366,20.596679
-100.403316,20.596183
-100.407122,20.595779
-100.398421,20.592702
-100.378101,20.592499
-100.378986,20.591885
-100.376605,20.590774
-100.404874,20.590529
-100.4063,20.589964
-100.39598,20.589817
-100.41146,20.589439
-100.397337,20.589346
-100.40859,20.589364
-100.410065,20.589232
-100.405837,20.588632
-100.376417,20.588207
-100.409321,20.587412
-100.375135,20.58707
-100.376311,20.586834
-100.410515,20.58699
-100.396554,20.586675
-100.405086,20.5865
-100.388782,20.58596
-100.399559,20.585669
-100.391535,20.584951
-100.402166,20.584754
-100.404362,20.58418
-100.393923,20.58412
-100.395651,20.583284
-100.398079,20.581724