UndirectedEdge[2, 3]
UndirectedEdge[3, 15]
UndirectedEdge[9, 10]
UndirectedEdge[9, 16]
UndirectedEdge[10, 12]
UndirectedEdge[11, 12]
UndirectedEdge[11, 13]
UndirectedEdge[13, 19]
UndirectedEdge[15, 19]
UndirectedEdge[16, 17]
UndirectedEdge[17, 22]
UndirectedEdge[19, 25]
UndirectedEdge[22, 24]
UndirectedEdge[24, 26]
UndirectedEdge[25, 27]
UndirectedEdge[26, 33]
UndirectedEdge[27, 31]
UndirectedEdge[31, 42]
UndirectedEdge[33, 34]
UndirectedEdge[39, 40]
UndirectedEdge[40, 43]
UndirectedEdge[40, 49]
UndirectedEdge[42, 44]
UndirectedEdge[43, 44]
UndirectedEdge[48, 49]
UndirectedEdge[49, 52]
UndirectedEdge[50, 51]
UndirectedEdge[50, 54]
UndirectedEdge[51, 56]
UndirectedEdge[52, 55]
UndirectedEdge[54, 69]
UndirectedEdge[55, 57]
UndirectedEdge[56, 75]
UndirectedEdge[57, 62]
UndirectedEdge[57, 66]
UndirectedEdge[62, 70]
UndirectedEdge[66, 81]
UndirectedEdge[69, 76]
UndirectedEdge[70, 72]
UndirectedEdge[72, 78]
UndirectedEdge[74, 79]
UndirectedEdge[74, 91]
UndirectedEdge[75, 83]
UndirectedEdge[79, 85]
UndirectedEdge[81, 90]
UndirectedEdge[83, 88]
UndirectedEdge[85, 89]
UndirectedEdge[88, 91]
UndirectedEdge[89, 90]
UndirectedEdge[91, 92]
UndirectedEdge[92, 95]