"{-100.422626, 20.621989}","{-100.414987, 20.620784}","{-100.421725, 20.619097}"
"{-100.414987, 20.620784}","{-100.410396, 20.619338}","{-100.409706, 20.61207}","{-100.413654, 20.611969}","{-100.421725, 20.619097}"
"{-100.410396, 20.619338}","{-100.404087, 20.61737}","{-100.401945, 20.612573}","{-100.405749, 20.610382}","{-100.409706, 20.61207}"
"{-100.421725, 20.619097}","{-100.413654, 20.611969}","{-100.408668, 20.605739}","{-100.417602, 20.604407}","{-100.421725, 20.619097}"
"{-100.404087, 20.61737}","{-100.394259, 20.616607}","{-100.394222, 20.613268}","{-100.397181, 20.612857}","{-100.399836, 20.613055}","{-100.401945, 20.612573}"
"{-100.394259, 20.616607}","{-100.390182, 20.616285}","{-100.389989, 20.613922}","{-100.394222, 20.613268}"
"{-100.390182, 20.616285}","{-100.388987, 20.614291}","{-100.389989, 20.613922}"
"{-100.390182, 20.616285}","{-100.381142, 20.610304}","{-100.38332, 20.608429}","{-100.386442, 20.609114}","{-100.386802, 20.610147}","{-100.388987, 20.614291}"
"{-100.388987, 20.614291}","{-100.386802, 20.610147}","{-100.38838, 20.610063}","{-100.389989, 20.613922}"
"{-100.389989, 20.613922}","{-100.38838, 20.610063}","{-100.386802, 20.610147}","{-100.386442, 20.609114}","{-100.39074, 20.604502}","{-100.391256, 20.609}","{-100.39687, 20.6092101}","{-100.397181, 20.612857}","{-100.394222, 20.613268}"
"{-100.399836, 20.613055}","{-100.397181, 20.612857}","{-100.39687, 20.6092101}","{-100.399391, 20.609277}"
"{-100.399836, 20.613055}","{-100.399391, 20.609277}","{-100.399448, 20.603633}","{-100.406611, 20.603862}","{-100.406867, 20.606573}","{-100.405749, 20.610382}","{-100.401945, 20.612573}"
"{-100.413654, 20.611969}","{-100.409706, 20.61207}","{-100.405749, 20.610382}","{-100.406867, 20.606573}","{-100.408668, 20.605739}"
"{-100.381142, 20.610304}","{-100.377236, 20.604497}","{-100.382298, 20.605955}","{-100.38332, 20.608429}"
"{-100.399391, 20.609277}","{-100.39687, 20.6092101}","{-100.391256, 20.609}","{-100.39074, 20.604502}","{-100.393797, 20.598759}","{-100.398492, 20.597667}","{-100.399448, 20.603633}"
"{-100.386442, 20.609114}","{-100.38332, 20.608429}","{-100.382298, 20.605955}","{-100.384053, 20.601178}","{-100.383215, 20.601403}","{-100.393797, 20.598759}","{-100.39074, 20.604502}"
"{-100.406867, 20.606573}","{-100.406611, 20.603862}","{-100.408668, 20.605739}"
"{-100.382298, 20.605955}","{-100.377236, 20.604497}","{-100.37591, 20.600506}","{-100.380798, 20.600813}","{-100.383215, 20.601403}"
"{-100.408668, 20.605739}","{-100.406611, 20.603862}","{-100.407375, 20.596437}","{-100.416328, 20.599833}","{-100.417602, 20.604407}"
"{-100.406611, 20.603862}","{-100.399448, 20.603633}","{-100.398492, 20.597667}","{-100.399739, 20.596995}","{-100.403316, 20.596183}","{-100.407122, 20.595779}","{-100.407375, 20.596437}"
"{-100.383215, 20.601403}","{-100.384053, 20.601178}","{-100.380798, 20.600813}","{-100.378101, 20.592499}","{-100.378986, 20.591885}","{-100.382999, 20.593451}"
"{-100.384053, 20.601178}","{-100.382999, 20.593451}","{-100.391041, 20.591448}","{-100.392271, 20.594612}","{-100.393797, 20.598759}"
"{-100.380798, 20.600813}","{-100.37591, 20.600506}","{-100.372366, 20.596679}","{-100.378101, 20.592499}"
"{-100.416328, 20.599833}","{-100.407375, 20.596437}","{-100.407122, 20.595779}","{-100.415007, 20.595231}"
"{-100.393797, 20.598759}","{-100.392271, 20.594612}","{-100.397006, 20.593169}","{-100.398492, 20.597667}"
"{-100.398492, 20.597667}","{-100.397006, 20.593169}","{-100.398421, 20.592702}","{-100.399739, 20.596995}"
"{-100.399739, 20.596995}","{-100.398421, 20.592702}","{-100.401697, 20.591693}","{-100.403316, 20.596183}"
"{-100.372366, 20.596679}","{-100.363755, 20.588653}","{-100.370604, 20.587858}","{-100.376605, 20.590774}","{-100.378101, 20.592499}"
"{-100.403316, 20.596183}","{-100.401697, 20.591693}","{-100.404874, 20.590529}","{-100.407122, 20.595779}"
"{-100.407122, 20.595779}","{-100.404874, 20.590529}","{-100.4063, 20.589964}","{-100.40859, 20.589364}","{-100.410065, 20.589232}","{-100.41146, 20.589439}","{-100.413461, 20.589804}","{-100.415007, 20.595231}"
"{-100.392271, 20.594612}","{-100.391041, 20.591448}","{-100.39598, 20.589817}","{-100.397006, 20.593169}"
"{-100.382999, 20.593451}","{-100.378986, 20.591885}","{-100.386949, 20.589948}","{-100.389918, 20.588889}","{-100.391041, 20.591448}"
"{-100.397006, 20.593169}","{-100.39598, 20.589817}","{-100.397337, 20.589346}","{-100.398421, 20.592702}"
"{-100.398421, 20.592702}","{-100.397337, 20.589346}","{-100.40052, 20.588274}","{-100.401697, 20.591693}"
"{-100.378101, 20.592499}","{-100.376605, 20.590774}","{-100.378986, 20.591885}"
"{-100.378986, 20.591885}","{-100.376605, 20.590774}","{-100.376417, 20.588207}","{-100.376311, 20.586834}","{-100.385845, 20.587028}","{-100.386949, 20.589948}"
"{-100.401697, 20.591693}","{-100.40052, 20.588274}","{-100.403276, 20.58711}","{-100.404232, 20.589193}","{-100.404874, 20.590529}"
"{-100.391041, 20.591448}","{-100.389918, 20.588889}","{-100.395114, 20.587163}","{-100.39598, 20.589817}"
"{-100.376605, 20.590774}","{-100.370604, 20.587858}","{-100.375135, 20.58707}","{-100.376417, 20.588207}"
"{-100.404874, 20.590529}","{-100.404232, 20.589193}","{-100.405837, 20.588632}","{-100.4063, 20.589964}"
"{-100.386949, 20.589948}","{-100.385845, 20.587028}","{-100.388782, 20.58596}","{-100.389918, 20.588889}"
"{-100.4063, 20.589964}","{-100.405837, 20.588632}","{-100.40807, 20.587852}","{-100.40859, 20.589364}"
"{-100.39598, 20.589817}","{-100.395114, 20.587163}","{-100.396554, 20.586675}","{-100.397337, 20.589346}"
"{-100.413461, 20.589804}","{-100.41146, 20.589439}","{-100.410515, 20.58699}","{-100.412089, 20.586412}"
"{-100.41146, 20.589439}","{-100.410065, 20.589232}","{-100.409321, 20.587412}","{-100.410515, 20.58699}"
"{-100.397337, 20.589346}","{-100.396554, 20.586675}","{-100.399559, 20.585669}","{-100.40052, 20.588274}"
"{-100.40859, 20.589364}","{-100.40807, 20.587852}","{-100.409321, 20.587412}","{-100.410065, 20.589232}"
"{-100.404232, 20.589193}","{-100.403276, 20.58711}","{-100.405086, 20.5865}","{-100.405837, 20.588632}"
"{-100.389918, 20.588889}","{-100.388782, 20.58596}","{-100.391535, 20.584951}","{-100.393923, 20.58412}","{-100.395114, 20.587163}"
"{-100.405837, 20.588632}","{-100.405086, 20.5865}","{-100.407296, 20.585882}","{-100.40807, 20.587852}"
"{-100.363755, 20.588653}","{-100.361785, 20.582024}","{-100.374104, 20.579458}","{-100.375135, 20.58707}","{-100.370604, 20.587858}"
"{-100.40052, 20.588274}","{-100.399559, 20.585669}","{-100.402166, 20.584754}","{-100.403276, 20.58711}"
"{-100.376417, 20.588207}","{-100.375135, 20.58707}","{-100.376311, 20.586834}"
"{-100.40807, 20.587852}","{-100.407296, 20.585882}","{-100.40857, 20.585536}","{-100.409321, 20.587412}"
"{-100.409321, 20.587412}","{-100.40857, 20.585536}","{-100.409745, 20.585233}","{-100.410515, 20.58699}"
"{-100.403276, 20.58711}","{-100.402166, 20.584754}","{-100.404362, 20.58418}","{-100.405086, 20.5865}"
"{-100.395114, 20.587163}","{-100.393923, 20.58412}","{-100.395651, 20.583284}","{-100.396554, 20.586675}"
"{-100.385845, 20.587028}","{-100.376311, 20.586834}","{-100.375135, 20.58707}","{-100.374104, 20.579458}","{-100.382268, 20.577798}"
"{-100.385845, 20.587028}","{-100.382268, 20.577798}","{-100.38544, 20.577177}","{-100.388782, 20.58596}"
"{-100.410515, 20.58699}","{-100.409745, 20.585233}","{-100.410668, 20.584801}","{-100.412089, 20.586412}"
"{-100.396554, 20.586675}","{-100.395651, 20.583284}","{-100.398079, 20.581724}","{-100.399559, 20.585669}"
"{-100.405086, 20.5865}","{-100.404362, 20.58418}","{-100.407144, 20.581739}","{-100.410668, 20.584801}","{-100.409745, 20.585233}","{-100.40857, 20.585536}","{-100.407296, 20.585882}"
"{-100.388782, 20.58596}","{-100.38544, 20.577177}","{-100.389128, 20.576425}","{-100.391535, 20.584951}"
"{-100.399559, 20.585669}","{-100.398079, 20.581724}","{-100.399094, 20.580837}","{-100.402166, 20.584754}"
"{-100.391535, 20.584951}","{-100.389128, 20.576425}","{-100.393091, 20.5756}","{-100.395651, 20.583284}","{-100.393923, 20.58412}"
"{-100.402166, 20.584754}","{-100.399094, 20.580837}","{-100.40221, 20.577133}","{-100.407144, 20.581739}","{-100.404362, 20.58418}"
"{-100.395651, 20.583284}","{-100.393091, 20.5756}","{-100.39633, 20.574997}","{-100.398079, 20.581724}"
"{-100.398079, 20.581724}","{-100.39633, 20.574997}","{-100.399193, 20.574315}","{-100.40221, 20.577133}","{-100.399094, 20.580837}"