UndirectedEdge[1, 5]
UndirectedEdge[2, 5]
UndirectedEdge[3, 7]
UndirectedEdge[4, 8]
UndirectedEdge[5, 6]
UndirectedEdge[5, 17]
UndirectedEdge[6, 7]
UndirectedEdge[7, 8]
UndirectedEdge[8, 10]
UndirectedEdge[9, 10]
UndirectedEdge[10, 11]
UndirectedEdge[11, 12]
UndirectedEdge[12, 13]
UndirectedEdge[14, 15]
UndirectedEdge[15, 31]
UndirectedEdge[16, 17]
UndirectedEdge[17, 18]
UndirectedEdge[18, 19]
UndirectedEdge[19, 20]
UndirectedEdge[20, 21]
UndirectedEdge[21, 22]
UndirectedEdge[22, 23]
UndirectedEdge[23, 27]
UndirectedEdge[24, 25]
UndirectedEdge[25, 26]
UndirectedEdge[26, 28]
UndirectedEdge[27, 29]
UndirectedEdge[27, 37]
UndirectedEdge[28, 30]
UndirectedEdge[29, 32]
UndirectedEdge[29, 41]
UndirectedEdge[30, 34]
UndirectedEdge[31, 33]
UndirectedEdge[32, 35]
UndirectedEdge[32, 44]
UndirectedEdge[33, 36]
UndirectedEdge[34, 39]
UndirectedEdge[35, 36]
UndirectedEdge[38, 40]
UndirectedEdge[38, 54]
UndirectedEdge[39, 42]
UndirectedEdge[40, 43]
UndirectedEdge[42, 56]
UndirectedEdge[43, 45]
UndirectedEdge[44, 46]
UndirectedEdge[45, 47]
UndirectedEdge[46, 49]
UndirectedEdge[47, 50]
UndirectedEdge[48, 51]
UndirectedEdge[49, 52]
UndirectedEdge[49, 58]
UndirectedEdge[50, 53]
UndirectedEdge[51, 55]
UndirectedEdge[51, 63]
UndirectedEdge[53, 56]
UndirectedEdge[54, 59]
UndirectedEdge[55, 57]
UndirectedEdge[56, 60]
UndirectedEdge[57, 58]
UndirectedEdge[58, 61]
UndirectedEdge[59, 62]
UndirectedEdge[60, 63]
UndirectedEdge[62, 64]
UndirectedEdge[63, 67]
UndirectedEdge[64, 65]
UndirectedEdge[65, 66]
UndirectedEdge[66, 68]
UndirectedEdge[68, 69]