UndirectedEdge[5, 6]
UndirectedEdge[5, 17]
UndirectedEdge[6, 7]
UndirectedEdge[7, 8]
UndirectedEdge[8, 10]
UndirectedEdge[17, 18]
UndirectedEdge[18, 19]
UndirectedEdge[19, 20]
UndirectedEdge[20, 21]
UndirectedEdge[21, 22]
UndirectedEdge[22, 23]
UndirectedEdge[23, 27]
UndirectedEdge[27, 29]
UndirectedEdge[29, 32]
UndirectedEdge[32, 44]
UndirectedEdge[40, 43]
UndirectedEdge[43, 45]
UndirectedEdge[44, 46]
UndirectedEdge[45, 47]
UndirectedEdge[46, 49]
UndirectedEdge[47, 50]
UndirectedEdge[49, 58]
UndirectedEdge[50, 53]
UndirectedEdge[51, 55]
UndirectedEdge[51, 63]
UndirectedEdge[53, 56]
UndirectedEdge[55, 57]
UndirectedEdge[56, 60]
UndirectedEdge[57, 58]
UndirectedEdge[60, 63]